module github.com/nektos/act

go 1.18

require (
	github.com/AlecAivazis/survey/v2 v2.3.6
	github.com/Masterminds/semver v1.5.0
	github.com/adrg/xdg v0.4.0
	github.com/andreaskoch/go-fswatch v1.0.0
	github.com/creack/pty v1.1.18
	github.com/docker/cli v23.0.1+incompatible
	github.com/docker/distribution v2.8.1+incompatible
	github.com/docker/docker v23.0.1+incompatible
	github.com/docker/go-connections v0.4.0
	github.com/go-git/go-billy/v5 v5.4.1
	github.com/go-git/go-git/v5 v5.4.2
	github.com/imdario/mergo v0.3.13
	github.com/joho/godotenv v1.5.1
	github.com/julienschmidt/httprouter v1.3.0
	github.com/kballard/go-shellquote v0.0.0-20180428030007-95032a82bc51
	github.com/mattn/go-isatty v0.0.17
	github.com/mitchellh/go-homedir v1.1.0
	github.com/moby/buildkit v0.11.4
	github.com/moby/patternmatcher v0.5.0
	github.com/opencontainers/image-spec v1.1.0-rc2
	github.com/opencontainers/selinux v1.11.0
	github.com/pkg/errors v0.9.1
	github.com/rhysd/actionlint v1.6.23
	github.com/sabhiram/go-gitignore v0.0.0-20210923224102-525f6e181f06
	github.com/sirupsen/logrus v1.9.0
	github.com/spf13/cobra v1.6.1
	github.com/spf13/pflag v1.0.5
	github.com/stretchr/testify v1.8.1
	golang.org/x/term v0.6.0
	gopkg.in/yaml.v3 v3.0.1
	gotest.tools/v3 v3.4.0
)

require (
	github.com/Microsoft/go-winio v0.5.2 // indirect
	github.com/ProtonMail/go-crypto v0.0.0-20220404123522-616f957b79ad // indirect
	github.com/acomagu/bufpipe v1.0.3 // indirect
	github.com/containerd/containerd v1.6.18 // indirect
	github.com/davecgh/go-spew v1.1.1 // indirect
	github.com/docker/docker-credential-helpers v0.7.0 // indirect
	github.com/docker/go-units v0.5.0 // indirect
	github.com/emirpasic/gods v1.12.0 // indirect
	github.com/fatih/color v1.13.0 // indirect
	github.com/go-git/gcfg v1.5.0 // indirect
	github.com/gogo/protobuf v1.3.2 // indirect
	github.com/google/go-cmp v0.5.9 // indirect
	github.com/google/shlex v0.0.0-20191202100458-e7afc7fbc510 // indirect
	github.com/inconshreveable/mousetrap v1.0.1 // indirect
	github.com/jbenet/go-context v0.0.0-20150711004518-d14ea06fba99 // indirect
	github.com/kevinburke/ssh_config v1.2.0 // indirect
	github.com/klauspost/compress v1.15.12 // indirect
	github.com/mattn/go-colorable v0.1.13 // indirect
	github.com/mattn/go-runewidth v0.0.14 // indirect
	github.com/mgutz/ansi v0.0.0-20170206155736-9520e82c474b // indirect
	github.com/mitchellh/mapstructure v1.1.2 // indirect
	github.com/moby/sys/sequential v0.5.0 // indirect
	github.com/moby/term v0.0.0-20200312100748-672ec06f55cd // indirect
	github.com/opencontainers/go-digest v1.0.0 // indirect
	github.com/opencontainers/runc v1.1.3 // indirect
	github.com/pmezard/go-difflib v1.0.0 // indirect
	github.com/rivo/uniseg v0.4.3 // indirect
	github.com/robfig/cron v1.2.0 // indirect
	github.com/sergi/go-diff v1.2.0 // indirect
	github.com/stretchr/objx v0.5.0 // indirect
	github.com/xanzy/ssh-agent v0.3.1 // indirect
	github.com/xeipuuv/gojsonpointer v0.0.0-20180127040702-4e3ac2762d5f // indirect
	github.com/xeipuuv/gojsonreference v0.0.0-20180127040603-bd5ef7bd5415 // indirect
	github.com/xeipuuv/gojsonschema v1.2.0 // indirect
	golang.org/x/crypto v0.2.0 // indirect
	golang.org/x/net v0.7.0 // indirect
	golang.org/x/sync v0.1.0 // indirect
	golang.org/x/sys v0.6.0 // indirect
	golang.org/x/text v0.7.0 // indirect
	gopkg.in/warnings.v0 v0.1.2 // indirect
	gopkg.in/yaml.v2 v2.4.0 // indirect
)

replace github.com/go-git/go-git/v5 => github.com/ZauberNerd/go-git/v5 v5.4.3-0.20220224134545-c785af3f4559
